Logistic Regression
…
Any data beyond the intersection of the red and black lines will be predicted as a default

How do we add the threshold into our model? What do the results look like?

dat_model_lin_preds = dat_model_lin %>%
  mutate(default_predicted_2 = if_else(default_predicted > default_threshold, 1, 0))
dat_model_lin_preds %>%
  select(default, balance, income, default_predicted, default_predicted_2)

## # A tibble: 10,000 x 5
##    default balance income default_predicted default_predicted_2
##      <dbl>   <dbl>  <dbl>             <dbl>               <dbl>
##  1       0    730. 44362.           0.0196                    0
##  2       0    817. 12106.           0.0310                    0
##  3       0   1074. 31767.           0.0643                    0
##  4       0    529. 35704.          -0.00644                   0
##  5       0    786. 38463.           0.0269                    0
##  6       0    920.  7492.           0.0443                    0
##  7       0    826. 24905.           0.0320                    0
##  8       0    809. 17600.           0.0299                    0
##  9       0   1161. 37469.           0.0756                    0
## 10       0      0  29275.          -0.0752                    0
## #  with 9,990 more rows

How accurate is our model? How do we calculate it?

dat_model_lin_preds = dat_model_lin_preds %>%
  mutate(predicted_correct = if_else(default == default_predicted_2, 1, 0))
dat_model_lin_preds %>%
  select(balance, default, default_predicted_2, predicted_correct)

## # A tibble: 10,000 x 4
##    balance default default_predicted_2 predicted_correct
##      <dbl>   <dbl>               <dbl>             <dbl>
##  1    730.       0                   0                 1
##  2    817.       0                   0                 1
##  3   1074.       0                   0                 1
##  4    529.       0                   0                 1
##  5    786.       0                   0                 1
##  6    920.       0                   0                 1
##  7    826.       0                   0                 1
##  8    809.       0                   0                 1
##  9   1161.       0                   0                 1
## 10      0        0                   0                 1
## #  with 9,990 more rows
…
